Extract the active element of a sfnetwork as spatial tibble — as_tibble • sfnetworks
…
    Examples

library(tibble, quietly = TRUE)

net = as_sfnetwork(roxel)

# Extract the active network element as a spatial tibble.
as_tibble(net)

#> Simple feature collection with 701 features and 0 fields
#> Geometry type: POINT
#> Dimension:     XY
#> Bounding box:  xmin: 7.522622 ymin: 51.94151 xmax: 7.546705 ymax: 51.9612
#> Geodetic CRS:  WGS 84
#> # A tibble: 701 x 1
#>               geometry
#>            <POINT [°]>
#>  1 (7.533722 51.95556)
#>  2 (7.533461 51.95576)
#>  3 (7.532442 51.95422)
#>  4  (7.53209 51.95328)
#>  5 (7.532709 51.95209)
#>  6 (7.532869 51.95257)
#>  7 (7.540063 51.94468)
#>  8  (7.53822 51.94546)
#>  9  (7.537673 51.9475)
#> 10 (7.537614 51.94562)
#> # … with 691 more rows

# Extract any network element as a spatial tibble.
as_tibble(net, "edges")

#> Simple feature collection with 851 features and 4 fields
#> Geometry type: LINESTRING
#> Dimension:     XY
#> Bounding box:  xmin: 7.522594 ymin: 51.94151 xmax: 7.546705 ymax: 51.9612
#> Geodetic CRS:  WGS 84
#> # A tibble: 851 x 5
#>     from    to name         type                                        geometry
#>    <int> <int> <chr>        <fct>                               <LINESTRING [°]>
#>  1     1     2 Havixbecker… reside…       (7.533722 51.95556, 7.533461 51.95576)
#>  2     3     4 Pienersallee second… (7.532442 51.95422, 7.53236 51.95377, 7.532…
#>  3     5     6 Schulte-Ber… reside… (7.532709 51.95209, 7.532823 51.95239, 7.53…
#>  4     7     8 NA           path    (7.540063 51.94468, 7.539696 51.94479, 7.53…
#>  5     9    10 Welsingheide reside…        (7.537673 51.9475, 7.537614 51.94562)
#>  6    11    12 NA           footway (7.543791 51.94733, 7.54369 51.94686, 7.543…
#>  7    13    14 NA           footway        (7.54012 51.94478, 7.539931 51.94514)
#>  8     8    10 NA           path    (7.53822 51.94546, 7.538131 51.94549, 7.538…
#>  9     7    15 NA           track   (7.540063 51.94468, 7.540338 51.94468, 7.54…
#> 10    16    17 NA           track   (7.5424 51.94599, 7.54205 51.94629, 7.54196…
#> # … with 841 more rows

# Extract the active network element as a regular tibble.
as_tibble(net, spatial = FALSE)

#> # A tibble: 701 x 1
#>               geometry
#>            <POINT [°]>
#>  1 (7.533722 51.95556)
#>  2 (7.533461 51.95576)
#>  3 (7.532442 51.95422)
#>  4  (7.53209 51.95328)
#>  5 (7.532709 51.95209)
#>  6 (7.532869 51.95257)
#>  7 (7.540063 51.94468)
#>  8  (7.53822 51.94546)
#>  9  (7.537673 51.9475)
#> 10 (7.537614 51.94562)
#> # … with 691 more rows
…
