Create a sfnetwork — sfnetwork • sfnetworks
…
# Adjust the number of features printed by active and inactive components
oldoptions = options(sfn_max_print_active = 1, sfn_max_print_inactive = 2)
sfnetwork(nodes, edges)
#> Checking if spatial network structure is valid...
#> Spatial network structure is valid
#> # A sfnetwork with 3 nodes and 3 edges
#> #
#> # CRS:  EPSG:4326 
#> #
#> # A directed acyclic simple graph with 1 component with spatially explicit edges
#> #
#> # A tibble: 3 × 2
#>             x name 
#>   <POINT [°]> <chr>
#> 1      (7 51) city 
#> # ℹ 2 more rows
#> #
#> # A tibble: 3 × 3
#>    from    to                x
#>   <int> <int> <LINESTRING [°]>
#> 1     1     2     (7 51, 7 52)
#> 2     1     3     (7 51, 8 52)
#> # ℹ 1 more row
…
