Query edges with spatial predicates — spatial_edge_predicates • sfnetworks
…
par(oldpar)

# Use predicate query function in a mutate call.
net %>%
  activate(edges) %>%
  mutate(disjoint = edge_is_disjoint(poly)) %>%
  select(disjoint)
#> # A sfnetwork with 701 nodes and 851 edges
#> #
#> # CRS:  EPSG:3035 
#> #
#> # A directed multigraph with 14 components with spatially explicit edges
#> #
#> # A tibble: 851 × 4
#>    from    to disjoint                                                  geometry
#>   <int> <int> <lgl>                                             <LINESTRING [m]>
#> 1     1     2 FALSE                           (4151491 3207923, 4151474 3207946)
#> 2     3     4 FALSE          (4151398 3207777, 4151390 3207727, 4151370 3207673)
#> 3     5     6 FALSE          (4151408 3207539, 4151417 3207573, 4151421 3207592)
#> 4     7     8 TRUE     (4151885 3206698, 4151861 3206711, 4151845 3206725, 4151…
#> 5     9    10 TRUE                            (4151732 3207017, 4151721 3206809)
#> 6    11    12 TRUE           (4152152 3206984, 4152143 3206932, 4152147 3206923)
#> # … with 845 more rows
#> #
#> # A tibble: 701 × 1
#>            geometry
#>         <POINT [m]>
#> 1 (4151491 3207923)
#> 2 (4151474 3207946)
#> 3 (4151398 3207777)
#> # … with 698 more rows
…
