Extract the active element of a sfnetwork as spatial tibble — as_tibble • sfnetworks
…
    Examples

library(tibble, quietly = TRUE)

net = as_sfnetwork(roxel)

# Extract the active network element as a spatial tibble.
as_tibble(net)
#> Simple feature collection with 987 features and 0 fields
#> Geometry type: POINT
#> Dimension:     XY
#> Bounding box:  xmin: 7.522595 ymin: 51.94151 xmax: 7.546705 ymax: 51.96119
#> Geodetic CRS:  WGS 84
#> # A tibble: 987 × 1
#>               geometry
#>            <POINT [°]>
#>  1 (7.538109 51.95286)
#>  2 (7.537867 51.95282)
#>  3 (7.537815 51.95867)
#>  4 (7.537015 51.95848)
#>  5 (7.533441 51.95578)
#>  6 (7.533415 51.95561)
#>  7 (7.525977 51.95283)
#>  8 (7.526581 51.95293)
#>  9 (7.532301 51.95559)
#> 10 (7.532142 51.95589)
#> # ℹ 977 more rows

# Extract any network element as a spatial tibble.
as_tibble(net, "edges")
#> Simple feature collection with 1215 features and 4 fields
#> Attribute-geometry relationships: constant (2), NA's (2)
#> Geometry type: LINESTRING
#> Dimension:     XY
#> Bounding box:  xmin: 7.522595 ymin: 51.94151 xmax: 7.546705 ymax: 51.96119
#> Geodetic CRS:  WGS 84
#> # A tibble: 1,215 × 5
#>     from    to name                              type                   geometry
#>    <int> <int> <chr>                             <chr>          <LINESTRING [°]>
#>  1     1     2 Hagemanns Kämpken                 resi… (7.538109 51.95286, 7.53…
#>  2     3     4 Stiegkamp                         resi… (7.537815 51.95867, 7.53…
#>  3     5     6 Havixbecker Straße                resi… (7.533441 51.95578, 7.53…
#>  4     7     8 Holzschuhmacherweg                resi… (7.525977 51.95283, 7.52…
#>  5     9    10 Annette-von-Droste-Hülshoff-Stra… seco… (7.532301 51.95559, 7.53…
#>  6    11    12 NA                                foot… (7.543404 51.94779, 7.54…
#>  7    13    14 Deermannskamp                     resi… (7.537675 51.95689, 7.53…
#>  8    15    16 Lindenstraße                      resi… (7.539105 51.9504, 7.540…
#>  9    17    18 NA                                NA    (7.534875 51.95795, 7.53…
#> 10    19    20 Annette-von-Droste-Hülshoff-Stra… seco… (7.532465 51.95424, 7.53…
#> # ℹ 1,205 more rows

# Extract the active network element as a regular tibble.
as_tibble(net, spatial = FALSE)
#> # A tibble: 987 × 1
#>               geometry
#>            <POINT [°]>
#>  1 (7.538109 51.95286)
#>  2 (7.537867 51.95282)
#>  3 (7.537815 51.95867)
#>  4 (7.537015 51.95848)
#>  5 (7.533441 51.95578)
#>  6 (7.533415 51.95561)
#>  7 (7.525977 51.95283)
#>  8 (7.526581 51.95293)
#>  9 (7.532301 51.95559)
#> 10 (7.532142 51.95589)
#> # ℹ 977 more rows
…
