Tidy Geospatial Networks in R • sfnetworks
…
When given an sf object with LINESTRING geometries: the lines are considered edges, and nodes are created at the endpoints of the lines. Identical endpoints become one single node. This addresses the use-case that was presented in this r-spatial blogpost.

When given an sf object with POINT geometries: the points are considered nodes, and edges are created between them, in a sequential way. With that we mean: node 1 will be connected to node 2, node 2 to node 3, et cetera. This addresses the use-case that was presented in this stackoverflow thread. More construction algorithms for point data are planned to be implemented, see here.

See below an example with the Roxel dataset (which comes with sfnetworks and is a cleaned extract of OpenStreetMap roads in Münster-Roxel).

roxel

#> Simple feature collection with 851 features and 2 fields
#> geometry type:  LINESTRING
#> dimension:      XY
#> bbox:           xmin: 7.522594 ymin: 51.94151 xmax: 7.546705 ymax: 51.9612
#> geographic CRS: WGS 84
#> # A tibble: 851 x 3
#>    name           type                                                  geometry
#>    <fct>          <fct>                                         <LINESTRING [°]>
#>  1 Havixbecker S~ residen~                (7.533722 51.95556, 7.533461 51.95576)
#>  2 Pienersallee   seconda~ (7.532442 51.95422, 7.53236 51.95377, 7.53209 51.953~
#>  3 Schulte-Bernd~ residen~ (7.532709 51.95209, 7.532823 51.95239, 7.532869 51.9~
#>  4 NA             path     (7.540063 51.94468, 7.539696 51.94479, 7.539466 51.9~
#>  5 Welsingheide   residen~                 (7.537673 51.9475, 7.537614 51.94562)
#>  6 NA             footway  (7.543791 51.94733, 7.54369 51.94686, 7.543751 51.94~
#>  7 NA             footway                  (7.54012 51.94478, 7.539931 51.94514)
#>  8 NA             path     (7.53822 51.94546, 7.538131 51.94549, 7.538027 51.94~
#>  9 NA             track    (7.540063 51.94468, 7.540338 51.94468, 7.540591 51.9~
#> 10 NA             track    (7.5424 51.94599, 7.54205 51.94629, 7.541967 51.9463~
#> # ... with 841 more rows
…
Just as with a tbl_graph, one of the graph elements of an sfnetwork (i.e. nodes or edges) can be activated, and all subsequent computations will be performed on that active element. By default, the nodes are the active element. This can be changed with the activate() verb, that is borrowed from tidygraph.

Thanks to activate(), a lot of data manipulation tools can be directly applied to the network. If you want to do something that goes further, you can always extract the active element as an sf object, simply by calling st_as_sf() - in the case of spatially implicit edges, extract them with as_tibble() instead.

net %>%
  activate("edges") %>%
  st_as_sf()

#> Simple feature collection with 851 features and 4 fields
#> geometry type:  LINESTRING
#> dimension:      XY
#> bbox:           xmin: 7.522594 ymin: 51.94151 xmax: 7.546705 ymax: 51.9612
#> geographic CRS: WGS 84
#> # A tibble: 851 x 5
#>     from    to name         type                                        geometry
#>    <int> <int> <fct>        <fct>                               <LINESTRING [°]>
#>  1     1     2 Havixbecker~ reside~       (7.533722 51.95556, 7.533461 51.95576)
#>  2     3     4 Pienersallee second~ (7.532442 51.95422, 7.53236 51.95377, 7.532~
#>  3     5     6 Schulte-Ber~ reside~ (7.532709 51.95209, 7.532823 51.95239, 7.53~
#>  4     7     8 NA           path    (7.540063 51.94468, 7.539696 51.94479, 7.53~
#>  5     9    10 Welsingheide reside~        (7.537673 51.9475, 7.537614 51.94562)
#>  6    11    12 NA           footway (7.543791 51.94733, 7.54369 51.94686, 7.543~
#>  7    13    14 NA           footway        (7.54012 51.94478, 7.539931 51.94514)
#>  8     8    10 NA           path    (7.53822 51.94546, 7.538131 51.94549, 7.538~
#>  9     7    15 NA           track   (7.540063 51.94468, 7.540338 51.94468, 7.54~
#> 10    16    17 NA           track   (7.5424 51.94599, 7.54205 51.94629, 7.54196~
#> # ... with 841 more rows
…
