1. The sfnetwork data structure • sfnetworks
…
Instead of already providing a nodes and edges table with a valid network structure, it is also possible to create a network by only providing an sf object with geometries of type LINESTRING. Probably, this way of construction is most convenient and will be most often used.

It works as follows: the provided lines form the edges of the network, and nodes are created at their endpoints. Endpoints that are shared between multiple lines become one single node.

See below an example using the Roxel dataset that comes with the package. This dataset is an sf object with LINESTRING geometries that form the road network of Roxel, a neighborhood in the German city of Münster.

roxel

#> Simple feature collection with 851 features and 2 fields
#> Geometry type: LINESTRING
#> Dimension:     XY
#> Bounding box:  xmin: 7.522594 ymin: 51.94151 xmax: 7.546705 ymax: 51.9612
#> Geodetic CRS:  WGS 84
#> # A tibble: 851 × 3
#>    name                  type                                           geometry
#>  * <chr>                 <fct>                                  <LINESTRING [°]>
#>  1 Havixbecker Strasse   residential      (7.533722 51.95556, 7.533461 51.95576)
#>  2 Pienersallee          secondary   (7.532442 51.95422, 7.53236 51.95377, 7.53…
#>  3 Schulte-Bernd-Strasse residential (7.532709 51.95209, 7.532823 51.95239, 7.5…
#>  4 NA                    path        (7.540063 51.94468, 7.539696 51.94479, 7.5…
#>  5 Welsingheide          residential       (7.537673 51.9475, 7.537614 51.94562)
#>  6 NA                    footway     (7.543791 51.94733, 7.54369 51.94686, 7.54…
#>  7 NA                    footway           (7.54012 51.94478, 7.539931 51.94514)
#>  8 NA                    path        (7.53822 51.94546, 7.538131 51.94549, 7.53…
#>  9 NA                    track       (7.540063 51.94468, 7.540338 51.94468, 7.5…
#> 10 NA                    track       (7.5424 51.94599, 7.54205 51.94629, 7.5419…
#> # … with 841 more rows
#> # ℹ Use `print(n = ...)` to see more rows
…
Neither all sf functions nor all tidyverse verbs can be directly applied to a sfnetwork as described above. That is because there is a clear limitation in the relational data structure that requires rows to maintain their identity. Hence, a verb like dplyr::summarise() has no clear application for a network. For sf functions, this means also that the valid spatial network structure should be maintained. That is, functions that summarise geometries of an sf object, or (may) change their type, shape or position, are not supported directly. These are for example most of the geometric unary operations.

These functions cannot be directly applied to a sfnetwork, but no need to panic! The active element of the network can at any time be extracted with sf::st_as_sf() (or tibble::as_tibble()). This allows you to continue a specific part of your analysis outside of the network structure, using a regular sf object. Afterwards you could join inferred information back into the network. See the vignette about spatial joins for more details.

net %>%
  activate("nodes") %>%
  st_as_sf()

#> Simple feature collection with 701 features and 0 fields
#> Geometry type: POINT
#> Dimension:     XY
#> Bounding box:  xmin: 7.522622 ymin: 51.94151 xmax: 7.546705 ymax: 51.9612
#> Geodetic CRS:  WGS 84
#> # A tibble: 701 × 1
#>               geometry
#>            <POINT [°]>
#>  1 (7.533722 51.95556)
#>  2 (7.533461 51.95576)
#>  3 (7.532442 51.95422)
#>  4  (7.53209 51.95328)
#>  5 (7.532709 51.95209)
#>  6 (7.532869 51.95257)
#>  7 (7.540063 51.94468)
#>  8  (7.53822 51.94546)
#>  9  (7.537673 51.9475)
#> 10 (7.537614 51.94562)
#> # … with 691 more rows
#> # ℹ Use `print(n = ...)` to see more rows

Although we recommend for reasons of clarity to always explicitly activate an element before extraction, you can also use a shortcut by providing the name of the element you want to extract as extra argument to sf::st_as_sf():

st_as_sf(net, "edges")

#> Simple feature collection with 851 features and 4 fields
#> Geometry type: LINESTRING
#> Dimension:     XY
#> Bounding box:  xmin: 7.522594 ymin: 51.94151 xmax: 7.546705 ymax: 51.9612
#> Geodetic CRS:  WGS 84
#> # A tibble: 851 × 5
#>     from    to name                  type                               geometry
#>    <int> <int> <chr>                 <fct>                      <LINESTRING [°]>
#>  1     1     2 Havixbecker Strasse   residential (7.533722 51.95556, 7.533461 5…
#>  2     3     4 Pienersallee          secondary   (7.532442 51.95422, 7.53236 51…
#>  3     5     6 Schulte-Bernd-Strasse residential (7.532709 51.95209, 7.532823 5…
#>  4     7     8 NA                    path        (7.540063 51.94468, 7.539696 5…
#>  5     9    10 Welsingheide          residential (7.537673 51.9475, 7.537614 51…
#>  6    11    12 NA                    footway     (7.543791 51.94733, 7.54369 51…
#>  7    13    14 NA                    footway     (7.54012 51.94478, 7.539931 51…
#>  8     8    10 NA                    path        (7.53822 51.94546, 7.538131 51…
#>  9     7    15 NA                    track       (7.540063 51.94468, 7.540338 5…
#> 10    16    17 NA                    track       (7.5424 51.94599, 7.54205 51.9…
#> # … with 841 more rows
#> # ℹ Use `print(n = ...)` to see more rows
…
