Creating and representing spatial networks • sfnetworks
…
A more common way to create a spatial network is to start with only a set of LINESTRING geometries in sf format. These are assumed to be the edge of the network. Providing this to as_sfnetwork() will automatically call create_from_spatial_lines(). This function creates nodes at the endpoints of the lines. Endpoints that are shared between multiple lines, become a single node in the network.

To determine spatial equality of endpoints, sfnetworks by default uses a 12-digit precision for the coordinates. You can change this by either setting a different precision (see above) or by effectively rounding coordinate values using the utility function st_round().

# Linestring geometries.
roxel

#> Simple feature collection with 1215 features and 2 fields
#> Attribute-geometry relationships: constant (2)
#> Geometry type: LINESTRING
#> Dimension:     XY
#> Bounding box:  xmin: 7.522595 ymin: 51.94151 xmax: 7.546705 ymax: 51.96119
#> Geodetic CRS:  WGS 84
#> # A tibble: 1,215 × 3
#>    name                               type                              geometry
#>    <chr>                              <chr>                     <LINESTRING [°]>
#>  1 Hagemanns Kämpken                  residential (7.538109 51.95286, 7.537867 …
#>  2 Stiegkamp                          residential (7.537815 51.95867, 7.537015 …
#>  3 Havixbecker Straße                 residential (7.533441 51.95578, 7.533467 …
#>  4 Holzschuhmacherweg                 residential (7.525977 51.95283, 7.526581 …
#>  5 Annette-von-Droste-Hülshoff-Straße secondary   (7.532301 51.95559, 7.532214 …
#>  6 NA                                 footway     (7.543404 51.94779, 7.54358 5…
#>  7 Deermannskamp                      residential (7.537675 51.95689, 7.537904 …
#>  8 Lindenstraße                       residential (7.539105 51.9504, 7.540105 5…
#>  9 NA                                 NA          (7.534875 51.95795, 7.534819 …
#> 10 Annette-von-Droste-Hülshoff-Straße secondary   (7.532465 51.95424, 7.532469 …
#> # ℹ 1,205 more rows
…
